{
    "data": [
        {
            "id": "5g9333",
            "url": "https://wallhaven.cc/w/5g9333",
            "short_url": "https://whvn.cc/5g9333",
            "views": 64,
            "favorites": 0,
            "source": "",
            "purity": "sfw",
            "category": "general",
            "dimension_x": 2560,
            "dimension_y": 1440,
            "resolution": "2560x1440",
            "ratio": "1.78",
            "file_size": 1239523,
            "file_type": "image/jpeg",
            "created_at": "2024-09-08 03:46:38",
            "colors": [
                "#000000",
                "#424153",
                "#996633",
                "#663300",
                "#999999"
            ],
            "path": "https://w.wallhaven.cc/full/5g/wallhaven-5g9333.jpg",
            "thumbs": {
                "large": "https://th.wallhaven.cc/lg/5g/5g9333.jpg",
                "original": "https://th.wallhaven.cc/orig/5g/5g9333.jpg",
                "small": "https://th.wallhaven.cc/small/5g/5g9333.jpg"
            }
        },
        {
            "id": "3l1226",
            "url": "https://wallhaven.cc/w/3l1226",
            "short_url": "https://whvn.cc/3l1226",
            "views": 49,
            "favorites": 0,
            "source": "",
            "purity": "sfw",
            "category": "general",
            "dimension_x": 2560,
            "dimension_y": 1440,
            "resolution": "2560x1440",
            "ratio": "1.78",
            "file_size": 708979,
            "file_type": "image/jpeg",
            "created_at": "2024-09-08 03:46:38",
            "colors": [
                "#000000",
                "#424153",
                "#999999",
                "#336600",
                "#cccccc"
            ],
            "path": "https://w.wallhaven.cc/full/3l/wallhaven-3l1226.jpg",
            "thumbs": {
                "large": "https://th.wallhaven.cc/lg/3l/3l1226.jpg",
                "original": "https://th.wallhaven.cc/orig/3l/3l1226.jpg",
                "small": "https://th.wallhaven.cc/small/3l/3l1226.jpg"
            }
        },
        {
            "id": "vq6ee5",
            "url": "https://wallhaven.cc/w/vq6ee5",
            "short_url": "https://whvn.cc/vq6ee5",
            "views": 56,
            "favorites": 0,
            "source": "",
            "purity": "sfw",
            "category": "general",
            "dimension_x": 2560,
            "dimension_y": 1440,
            "resolution": "2560x1440",
            "ratio": "1.78",
            "file_size": 621421,
            "file_type": "image/jpeg",
            "created_at": "2024-09-08 03:46:38",
            "colors": [
                "#000000",
                "#663300",
                "#996633",
                "#424153",
                "#660000"
            ],
            "path": "https://w.wallhaven.cc/full/vq/wallhaven-vq6ee5.jpg",
            "thumbs": {
                "large": "https://th.wallhaven.cc/lg/vq/vq6ee5.jpg",
                "original": "https://th.wallhaven.cc/orig/vq/vq6ee5.jpg",
                "small": "https://th.wallhaven.cc/small/vq/vq6ee5.jpg"
            }
        },
        {
            "id": "2yq229",
            "url": "https://wallhaven.cc/w/2yq229",
            "short_url": "https://whvn.cc/2yq229",
            "views": 165,
            "favorites": 7,
            "source": "",
            "purity": "sfw",
            "category": "general",
            "dimension_x": 1921,
            "dimension_y": 1075,
            "resolution": "1921x1075",
            "ratio": "1.79",
            "file_size": 1402391,
            "file_type": "image/png",
            "created_at": "2024-09-08 03:28:22",
            "colors": [
                "#000000",
                "#424153",
                "#999999",
                "#ffffff",
                "#cccccc"
            ],
            "path": "https://w.wallhaven.cc/full/2y/wallhaven-2yq229.png",
            "thumbs": {
                "large": "https://th.wallhaven.cc/lg/2y/2yq229.jpg",
                "original": "https://th.wallhaven.cc/orig/2y/2yq229.jpg",
                "small": "https://th.wallhaven.cc/small/2y/2yq229.jpg"
            }
        },
        {
            "id": "rrl66q",
            "url": "https://wallhaven.cc/w/rrl66q",
            "short_url": "https://whvn.cc/rrl66q",
            "views": 128,
            "favorites": 12,
            "source": "https://www.pixiv.net/en/artworks/121638152",
            "purity": "sfw",
            "category": "anime",
            "dimension_x": 2688,
            "dimension_y": 1512,
            "resolution": "2688x1512",
            "ratio": "1.78",
            "file_size": 2345988,
            "file_type": "image/jpeg",
            "created_at": "2024-09-08 02:40:40",
            "colors": [
                "#424153",
                "#000000",
                "#999999",
                "#996633",
                "#663300"
            ],
            "path": "https://w.wallhaven.cc/full/rr/wallhaven-rrl66q.jpg",
            "thumbs": {
                "large": "https://th.wallhaven.cc/lg/rr/rrl66q.jpg",
                "original": "https://th.wallhaven.cc/orig/rr/rrl66q.jpg",
                "small": "https://th.wallhaven.cc/small/rr/rrl66q.jpg"
            }
        },
        {
            "id": "9dlggd",
            "url": "https://wallhaven.cc/w/9dlggd",
            "short_url": "https://whvn.cc/9dlggd",
            "views": 115,
            "favorites": 10,
            "source": "https://www.pixiv.net/en/artworks/102945159",
            "purity": "sfw",
            "category": "anime",
            "dimension_x": 3840,
            "dimension_y": 2160,
            "resolution": "3840x2160",
            "ratio": "1.78",
            "file_size": 1478734,
            "file_type": "image/jpeg",
            "created_at": "2024-09-08 02:26:37",
            "colors": [
                "#424153",
                "#000000",
                "#999999",
                "#663399",
                "#993399"
            ],
            "path": "https://w.wallhaven.cc/full/9d/wallhaven-9dlggd.jpg",
            "thumbs": {
                "large": "https://th.wallhaven.cc/lg/9d/9dlggd.jpg",
                "original": "https://th.wallhaven.cc/orig/9d/9dlggd.jpg",
                "small": "https://th.wallhaven.cc/small/9d/9dlggd.jpg"
            }
        },
        {
            "id": "kxqdd7",
            "url": "https://wallhaven.cc/w/kxqdd7",
            "short_url": "https://whvn.cc/kxqdd7",
            "views": 123,
            "favorites": 2,
            "source": "",
            "purity": "sfw",
            "category": "general",
            "dimension_x": 4990,
            "dimension_y": 2908,
            "resolution": "4990x2908",
            "ratio": "1.72",
            "file_size": 1858719,
            "file_type": "image/jpeg",
            "created_at": "2024-09-08 01:39:35",
            "colors": [
                "#000000",
                "#424153",
                "#999999",
                "#abbcda",
                "#cccccc"
            ],
            "path": "https://w.wallhaven.cc/full/kx/wallhaven-kxqdd7.jpg",
            "thumbs": {
                "large": "https://th.wallhaven.cc/lg/kx/kxqdd7.jpg",
                "original": "https://th.wallhaven.cc/orig/kx/kxqdd7.jpg",
                "small": "https://th.wallhaven.cc/small/kx/kxqdd7.jpg"
            }
        },
        {
            "id": "1pz223",
            "url": "https://wallhaven.cc/w/1pz223",
            "short_url": "https://whvn.cc/1pz223",
            "views": 68,
            "favorites": 0,
            "source": "",
            "purity": "sfw",
            "category": "general",
            "dimension_x": 3896,
            "dimension_y": 3112,
            "resolution": "3896x3112",
            "ratio": "1.25",
            "file_size": 1845084,
            "file_type": "image/jpeg",
            "created_at": "2024-09-08 01:39:35",
            "colors": [
                "#424153",
                "#cccccc",
                "#999999",
                "#e7d8b1",
                "#abbcda"
            ],
            "path": "https://w.wallhaven.cc/full/1p/wallhaven-1pz223.jpg",
            "thumbs": {
                "large": "https://th.wallhaven.cc/lg/1p/1pz223.jpg",
                "original": "https://th.wallhaven.cc/orig/1p/1pz223.jpg",
                "small": "https://th.wallhaven.cc/small/1p/1pz223.jpg"
            }
        },
        {
            "id": "zye99g",
            "url": "https://wallhaven.cc/w/zye99g",
            "short_url": "https://whvn.cc/zye99g",
            "views": 63,
            "favorites": 0,
            "source": "",
            "purity": "sfw",
            "category": "general",
            "dimension_x": 12560,
            "dimension_y": 5340,
            "resolution": "12560x5340",
            "ratio": "2.35",
            "file_size": 4340246,
            "file_type": "image/jpeg",
            "created_at": "2024-09-08 00:56:38",
            "colors": [
                "#424153",
                "#000000",
                "#999999",
                "#663300",
                "#660000"
            ],
            "path": "https://w.wallhaven.cc/full/zy/wallhaven-zye99g.jpg",
            "thumbs": {
                "large": "https://th.wallhaven.cc/lg/zy/zye99g.jpg",
                "original": "https://th.wallhaven.cc/orig/zy/zye99g.jpg",
                "small": "https://th.wallhaven.cc/small/zy/zye99g.jpg"
            }
        },
        {
            "id": "p9dg7e",
            "url": "https://wallhaven.cc/w/p9dg7e",
            "short_url": "https://whvn.cc/p9dg7e",
            "views": 64,
            "favorites": 0,
            "source": "",
            "purity": "sfw",
            "category": "general",
            "dimension_x": 10244,
            "dimension_y": 4356,
            "resolution": "10244x4356",
            "ratio": "2.35",
            "file_size": 13810152,
            "file_type": "image/png",
            "created_at": "2024-09-08 00:42:16",
            "colors": [
                "#000000",
                "#424153",
                "#ffffff",
                "#999999",
                "#cccccc"
            ],
            "path": "https://w.wallhaven.cc/full/p9/wallhaven-p9dg7e.png",
            "thumbs": {
                "large": "https://th.wallhaven.cc/lg/p9/p9dg7e.jpg",
                "original": "https://th.wallhaven.cc/orig/p9/p9dg7e.jpg",
                "small": "https://th.wallhaven.cc/small/p9/p9dg7e.jpg"
            }
        },
        {
            "id": "x6m9dv",
            "url": "https://wallhaven.cc/w/x6m9dv",
            "short_url": "https://whvn.cc/x6m9dv",
            "views": 49,
            "favorites": 0,
            "source": "",
            "purity": "sfw",
            "category": "general",
            "dimension_x": 10248,
            "dimension_y": 4352,
            "resolution": "10248x4352",
            "ratio": "2.35",
            "file_size": 17315767,
            "file_type": "image/png",
            "created_at": "2024-09-08 00:42:16",
            "colors": [
                "#424153",
                "#000000",
                "#999999",
                "#abbcda",
                "#cccccc"
            ],
            "path": "https://w.wallhaven.cc/full/x6/wallhaven-x6m9dv.png",
            "thumbs": {
                "large": "https://th.wallhaven.cc/lg/x6/x6m9dv.jpg",
                "original": "https://th.wallhaven.cc/orig/x6/x6m9dv.jpg",
                "small": "https://th.wallhaven.cc/small/x6/x6m9dv.jpg"
            }
        },
        {
            "id": "exm26k",
            "url": "https://wallhaven.cc/w/exm26k",
            "short_url": "https://whvn.cc/exm26k",
            "views": 35,
            "favorites": 0,
            "source": "",
            "purity": "sfw",
            "category": "general",
            "dimension_x": 10244,
            "dimension_y": 4356,
            "resolution": "10244x4356",
            "ratio": "2.35",
            "file_size": 14734046,
            "file_type": "image/png",
            "created_at": "2024-09-08 00:42:16",
            "colors": [
                "#000000",
                "#424153",
                "#999999",
                "#ffffff",
                "#cccccc"
            ],
            "path": "https://w.wallhaven.cc/full/ex/wallhaven-exm26k.png",
            "thumbs": {
                "large": "https://th.wallhaven.cc/lg/ex/exm26k.jpg",
                "original": "https://th.wallhaven.cc/orig/ex/exm26k.jpg",
                "small": "https://th.wallhaven.cc/small/ex/exm26k.jpg"
            }
        },
        {
            "id": "m3kygk",
            "url": "https://wallhaven.cc/w/m3kygk",
            "short_url": "https://whvn.cc/m3kygk",
            "views": 48,
            "favorites": 0,
            "source": "",
            "purity": "sfw",
            "category": "general",
            "dimension_x": 10244,
            "dimension_y": 4356,
            "resolution": "10244x4356",
            "ratio": "2.35",
            "file_size": 11497947,
            "file_type": "image/png",
            "created_at": "2024-09-08 00:42:16",
            "colors": [
                "#424153",
                "#000000",
                "#999999",
                "#ffffff",
                "#cccccc"
            ],
            "path": "https://w.wallhaven.cc/full/m3/wallhaven-m3kygk.png",
            "thumbs": {
                "large": "https://th.wallhaven.cc/lg/m3/m3kygk.jpg",
                "original": "https://th.wallhaven.cc/orig/m3/m3kygk.jpg",
                "small": "https://th.wallhaven.cc/small/m3/m3kygk.jpg"
            }
        },
        {
            "id": "o5rj6m",
            "url": "https://wallhaven.cc/w/o5rj6m",
            "short_url": "https://whvn.cc/o5rj6m",
            "views": 106,
            "favorites": 5,
            "source": "https://i.pximg.net/img-original/img/2024/08/10/00/00/20/121337297_p0.jpg",
            "purity": "sfw",
            "category": "anime",
            "dimension_x": 1412,
            "dimension_y": 2000,
            "resolution": "1412x2000",
            "ratio": "0.71",
            "file_size": 5068705,
            "file_type": "image/jpeg",
            "created_at": "2024-09-08 00:28:53",
            "colors": [
                "#000000",
                "#424153",
                "#333399",
                "#0066cc",
                "#66cccc"
            ],
            "path": "https://w.wallhaven.cc/full/o5/wallhaven-o5rj6m.jpg",
            "thumbs": {
                "large": "https://th.wallhaven.cc/lg/o5/o5rj6m.jpg",
                "original": "https://th.wallhaven.cc/orig/o5/o5rj6m.jpg",
                "small": "https://th.wallhaven.cc/small/o5/o5rj6m.jpg"
            }
        },
        {
            "id": "gpedml",
            "url": "https://wallhaven.cc/w/gpedml",
            "short_url": "https://whvn.cc/gpedml",
            "views": 169,
            "favorites": 8,
            "source": "https://twitter.com/shuu_Illust/status/1733779848072704091",
            "purity": "sfw",
            "category": "anime",
            "dimension_x": 4096,
            "dimension_y": 2304,
            "resolution": "4096x2304",
            "ratio": "1.78",
            "file_size": 1424138,
            "file_type": "image/jpeg",
            "created_at": "2024-09-08 00:21:56",
            "colors": [
                "#66cccc",
                "#424153",
                "#336600",
                "#cccc33",
                "#000000"
            ],
            "path": "https://w.wallhaven.cc/full/gp/wallhaven-gpedml.jpg",
            "thumbs": {
                "large": "https://th.wallhaven.cc/lg/gp/gpedml.jpg",
                "original": "https://th.wallhaven.cc/orig/gp/gpedml.jpg",
                "small": "https://th.wallhaven.cc/small/gp/gpedml.jpg"
            }
        },
        {
            "id": "jxzdyq",
            "url": "https://wallhaven.cc/w/jxzdyq",
            "short_url": "https://whvn.cc/jxzdyq",
            "views": 139,
            "favorites": 8,
            "source": "https://yuumei-art.tumblr.com/post/729451736112250880",
            "purity": "sfw",
            "category": "anime",
            "dimension_x": 1827,
            "dimension_y": 1500,
            "resolution": "1827x1500",
            "ratio": "1.22",
            "file_size": 1380811,
            "file_type": "image/jpeg",
            "created_at": "2024-09-08 00:17:47",
            "colors": [
                "#424153",
                "#999999",
                "#e7d8b1",
                "#996633",
                "#cccc33"
            ],
            "path": "https://w.wallhaven.cc/full/jx/wallhaven-jxzdyq.jpg",
            "thumbs": {
                "large": "https://th.wallhaven.cc/lg/jx/jxzdyq.jpg",
                "original": "https://th.wallhaven.cc/orig/jx/jxzdyq.jpg",
                "small": "https://th.wallhaven.cc/small/jx/jxzdyq.jpg"
            }
        },
        {
            "id": "l81djr",
            "url": "https://wallhaven.cc/w/l81djr",
            "short_url": "https://whvn.cc/l81djr",
            "views": 127,
            "favorites": 5,
            "source": "https://twitter.com/shuu_Illust/status/1610665708337377281",
            "purity": "sfw",
            "category": "anime",
            "dimension_x": 2895,
            "dimension_y": 4096,
            "resolution": "2895x4096",
            "ratio": "0.71",
            "file_size": 1534815,
            "file_type": "image/jpeg",
            "created_at": "2024-09-08 00:10:45",
            "colors": [
                "#000000",
                "#424153",
                "#333399",
                "#0066cc",
                "#0099cc"
            ],
            "path": "https://w.wallhaven.cc/full/l8/wallhaven-l81djr.jpg",
            "thumbs": {
                "large": "https://th.wallhaven.cc/lg/l8/l81djr.jpg",
                "original": "https://th.wallhaven.cc/orig/l8/l81djr.jpg",
                "small": "https://th.wallhaven.cc/small/l8/l81djr.jpg"
            }
        },
        {
            "id": "we7xd6",
            "url": "https://wallhaven.cc/w/we7xd6",
            "short_url": "https://whvn.cc/we7xd6",
            "views": 129,
            "favorites": 1,
            "source": "",
            "purity": "sfw",
            "category": "general",
            "dimension_x": 1920,
            "dimension_y": 1080,
            "resolution": "1920x1080",
            "ratio": "1.78",
            "file_size": 494808,
            "file_type": "image/jpeg",
            "created_at": "2024-09-07 23:24:35",
            "colors": [
                "#000000",
                "#663300",
                "#660000",
                "#996633",
                "#cc3333"
            ],
            "path": "https://w.wallhaven.cc/full/we/wallhaven-we7xd6.jpg",
            "thumbs": {
                "large": "https://th.wallhaven.cc/lg/we/we7xd6.jpg",
                "original": "https://th.wallhaven.cc/orig/we/we7xd6.jpg",
                "small": "https://th.wallhaven.cc/small/we/we7xd6.jpg"
            }
        },
        {
            "id": "1pz2g3",
            "url": "https://wallhaven.cc/w/1pz2g3",
            "short_url": "https://whvn.cc/1pz2g3",
            "views": 195,
            "favorites": 7,
            "source": "",
            "purity": "sfw",
            "category": "anime",
            "dimension_x": 2530,
            "dimension_y": 3276,
            "resolution": "2530x3276",
            "ratio": "0.77",
            "file_size": 4902168,
            "file_type": "image/png",
            "created_at": "2024-09-07 22:36:43",
            "colors": [
                "#000000",
                "#660000",
                "#ffff00",
                "#abbcda",
                "#424153"
            ],
            "path": "https://w.wallhaven.cc/full/1p/wallhaven-1pz2g3.png",
            "thumbs": {
                "large": "https://th.wallhaven.cc/lg/1p/1pz2g3.jpg",
                "original": "https://th.wallhaven.cc/orig/1p/1pz2g3.jpg",
                "small": "https://th.wallhaven.cc/small/1p/1pz2g3.jpg"
            }
        },
        {
            "id": "o5rj2m",
            "url": "https://wallhaven.cc/w/o5rj2m",
            "short_url": "https://whvn.cc/o5rj2m",
            "views": 223,
            "favorites": 6,
            "source": "",
            "purity": "sfw",
            "category": "general",
            "dimension_x": 5120,
            "dimension_y": 2880,
            "resolution": "5120x2880",
            "ratio": "1.78",
            "file_size": 13688015,
            "file_type": "image/jpeg",
            "created_at": "2024-09-07 20:56:24",
            "colors": [
                "#424153",
                "#000000",
                "#333399",
                "#663399",
                "#993399"
            ],
            "path": "https://w.wallhaven.cc/full/o5/wallhaven-o5rj2m.jpg",
            "thumbs": {
                "large": "https://th.wallhaven.cc/lg/o5/o5rj2m.jpg",
                "original": "https://th.wallhaven.cc/orig/o5/o5rj2m.jpg",
                "small": "https://th.wallhaven.cc/small/o5/o5rj2m.jpg"
            }
        },
        {
            "id": "9dlgox",
            "url": "https://wallhaven.cc/w/9dlgox",
            "short_url": "https://whvn.cc/9dlgox",
            "views": 358,
            "favorites": 5,
            "source": "",
            "purity": "sfw",
            "category": "anime",
            "dimension_x": 1920,
            "dimension_y": 1080,
            "resolution": "1920x1080",
            "ratio": "1.78",
            "file_size": 2052335,
            "file_type": "image/jpeg",
            "created_at": "2024-09-07 18:22:07",
            "colors": [
                "#ffffff",
                "#cccccc",
                "#999999",
                "#424153",
                "#996633"
            ],
            "path": "https://w.wallhaven.cc/full/9d/wallhaven-9dlgox.jpg",
            "thumbs": {
                "large": "https://th.wallhaven.cc/lg/9d/9dlgox.jpg",
                "original": "https://th.wallhaven.cc/orig/9d/9dlgox.jpg",
                "small": "https://th.wallhaven.cc/small/9d/9dlgox.jpg"
            }
        },
        {
            "id": "zye9yw",
            "url": "https://wallhaven.cc/w/zye9yw",
            "short_url": "https://whvn.cc/zye9yw",
            "views": 278,
            "favorites": 4,
            "source": "",
            "purity": "sfw",
            "category": "general",
            "dimension_x": 7728,
            "dimension_y": 5152,
            "resolution": "7728x5152",
            "ratio": "1.5",
            "file_size": 5123874,
            "file_type": "image/jpeg",
            "created_at": "2024-09-07 17:20:34",
            "colors": [
                "#424153",
                "#996633",
                "#000000",
                "#e7d8b1",
                "#999999"
            ],
            "path": "https://w.wallhaven.cc/full/zy/wallhaven-zye9yw.jpg",
            "thumbs": {
                "large": "https://th.wallhaven.cc/lg/zy/zye9yw.jpg",
                "original": "https://th.wallhaven.cc/orig/zy/zye9yw.jpg",
                "small": "https://th.wallhaven.cc/small/zy/zye9yw.jpg"
            }
        },
        {
            "id": "qzyoz7",
            "url": "https://wallhaven.cc/w/qzyoz7",
            "short_url": "https://whvn.cc/qzyoz7",
            "views": 393,
            "favorites": 21,
            "source": "",
            "purity": "sfw",
            "category": "general",
            "dimension_x": 4000,
            "dimension_y": 2360,
            "resolution": "4000x2360",
            "ratio": "1.69",
            "file_size": 18805220,
            "file_type": "image/png",
            "created_at": "2024-09-07 17:20:34",
            "colors": [
                "#000000",
                "#663300",
                "#424153",
                "#996633",
                "#999999"
            ],
            "path": "https://w.wallhaven.cc/full/qz/wallhaven-qzyoz7.png",
            "thumbs": {
                "large": "https://th.wallhaven.cc/lg/qz/qzyoz7.jpg",
                "original": "https://th.wallhaven.cc/orig/qz/qzyoz7.jpg",
                "small": "https://th.wallhaven.cc/small/qz/qzyoz7.jpg"
            }
        },
        {
            "id": "p9dg9p",
            "url": "https://wallhaven.cc/w/p9dg9p",
            "short_url": "https://whvn.cc/p9dg9p",
            "views": 295,
            "favorites": 10,
            "source": "",
            "purity": "sfw",
            "category": "general",
            "dimension_x": 3840,
            "dimension_y": 2160,
            "resolution": "3840x2160",
            "ratio": "1.78",
            "file_size": 11772881,
            "file_type": "image/png",
            "created_at": "2024-09-07 17:08:26",
            "colors": [
                "#000000",
                "#424153",
                "#999999",
                "#0066cc",
                "#333399"
            ],
            "path": "https://w.wallhaven.cc/full/p9/wallhaven-p9dg9p.png",
            "thumbs": {
                "large": "https://th.wallhaven.cc/lg/p9/p9dg9p.jpg",
                "original": "https://th.wallhaven.cc/orig/p9/p9dg9p.jpg",
                "small": "https://th.wallhaven.cc/small/p9/p9dg9p.jpg"
            }
        }
    ],
    "meta": {
        "current_page": 1,
        "last_page": 19352,
        "per_page": 24,
        "total": 464446,
        "query": null,
        "seed": null
    }
}